projeto/simulacao_ula.vcd
$date
	Sun Dec 14 15:16:03 2025
$end
$version
	Icarus Verilog
$end
$timescale
	1ps
$end
$scope module Sistema_ULA_tb $end
$var wire 6 ! FINAL_RESULT [5:0] $end
$var wire 1 " FINAL_LED_ZERO $end
$var wire 1 # FINAL_LED_OVERFLOW $end
$var wire 1 $ FINAL_LED_NEG $end
$var parameter 32 % CLK_PERIOD $end
$var reg 1 & clk $end
$var reg 1 ' push_button $end
$var reg 1 ( reset $end
$var reg 3 ) switches [2:0] $end
$scope module dut $end
$var wire 1 & clk $end
$var wire 1 ' push_button $end
$var wire 1 ( reset $end
$var wire 3 * switches [2:0] $end
$var wire 1 + zero_w $end
$var wire 1 , start_w $end
$var wire 6 - res_w [5:0] $end
$var wire 1 . ovf_w $end
$var wire 1 / neg_w $end
$var wire 1 0 clear_w $end
$var wire 3 1 OP_w [2:0] $end
$var wire 3 2 B_w [2:0] $end
$var wire 3 3 A_w [2:0] $end
$var reg 1 $ FINAL_LED_NEG $end
$var reg 1 # FINAL_LED_OVERFLOW $end
$var reg 1 " FINAL_LED_ZERO $end
$var reg 6 4 FINAL_RESULT [5:0] $end
$scope module ctrl $end
$var wire 1 & clk $end
$var wire 1 5 pb_edge $end
$var wire 1 ' push_button $end
$var wire 1 ( reset $end
$var wire 3 6 switches [2:0] $end
$var reg 3 7 A_out [2:0] $end
$var reg 3 8 B_out [2:0] $end
$var reg 1 0 LEDs_clear $end
$var reg 3 9 OP_out [2:0] $end
$var reg 1 : pb_reg $end
$var reg 1 , start_op $end
$var reg 3 ; state [2:0] $end
$upscope $end
$scope module ula $end
$var wire 3 < A [2:0] $end
$var wire 3 = B [2:0] $end
$var wire 3 > OP [2:0] $end
$var reg 1 / LED_NEG $end
$var reg 1 . LED_OVERFLOW $end
$var reg 1 + LED_ZERO $end
$var reg 6 ? RESULT [5:0] $end
$var reg 6 @ res_temp [5:0] $end
$upscope $end
$upscope $end
$scope task run_full_op $end
$var reg 3 A op_code [2:0] $end
$var reg 3 B val_a [2:0] $end
$var reg 3 C val_b [2:0] $end
$upscope $end
$scope task simulate_button_press $end
$upscope $end
$upscope $end
$enddefinitions $end
$comment Show the parameter values. $end
$dumpall
b1010 %
$end
#0
$dumpvars
bx C
bx B
bx A
b0 @
b0 ?
b0 >
b0 =
b0 <
b0 ;
0:
b0 9
b0 8
b0 7
b0 6
05
b0 4
b0 3
b0 2
b0 1
10
0/
0.
b0 -
0,
1+
b0 *
b0 )
1(
0'
0&
0$
0#
0"
b0 !
$end
#5000
1&
#10000
0&
#15000
1&
#20000
15
1'
0&
b0 A
b10 C
b11 B
0(
#25000
05
b1 ;
1:
1&
#30000
0&
#35000
00
1&
#40000
0'
0&
#45000
0:
1&
#50000
0&
#55000
1&
#60000
15
1'
0&
b11 )
b11 *
b11 6
#65000
05
0+
b11 -
b11 ?
b11 @
b10 ;
b11 3
b11 7
b11 <
1:
1&
#70000
0&
#75000
1&
#80000
0'
0&
#85000
0:
1&
#90000
0&
#95000
1&
#100000
15
1'
0&
b10 )
b10 *
b10 6
#105000
05
b101 -
b101 ?
1/
b101 @
b11 ;
b10 2
b10 8
b10 =
1:
1&
#110000
0&
#115000
1&
#120000
0'
0&
#125000
0:
1&
#130000
0&
#135000
1&
#140000
15
1'
0&
b0 )
b0 *
b0 6
#145000
05
b100 ;
1:
1&
#150000
0&
#155000
1&
#160000
0'
0&
#165000
0:
1&
#170000
0&
#175000
1&
#180000
15
1'
0&
#185000
05
b101 ;
1,
1:
1&
#190000
0&
#195000
0,
1$
b101 !
b101 4
1&
#200000
0'
0&
#205000
0:
1&
#210000
0&
#215000
1&
#220000
0&
#225000
1&
#230000
15
1'
0&
#235000
05
b0 ;
1:
1&
#240000
0&
#245000
1&
#250000
0'
0&
#255000
0:
1&
#260000
0&
#265000
1&
#270000
15
1'
0&
b1 A
b11 C
b101 B
#275000
05
1+
b0 -
b0 ?
0/
b0 @
b1 ;
10
b0 2
b0 8
b0 =
b0 3
b0 7
b0 <
1:
1&
#280000
0&
#285000
0$
b0 !
b0 4
00
1&
#290000
0'
0&
#295000
0:
1&
#300000
0&
#305000
1&
#310000
15
1'
0&
b101 )
b101 *
b101 6
#315000
05
0+
b101 -
b101 ?
1/
b101 @
b10 ;
b101 3
b101 7
b101 <
1:
1&
#320000
0&
#325000
1&
#330000
0'
0&
#335000
0:
1&
#340000
0&
#345000
1&
#350000
15
1'
0&
b11 )
b11 *
b11 6
#355000
05
b1000 -
b1000 ?
1.
0/
b1000 @
b11 ;
b11 2
b11 8
b11 =
1:
1&
#360000
0&
#365000
1&
#370000
0'
0&
#375000
0:
1&
#380000
0&
#385000
1&
#390000
15
1'
0&
b1 )
b1 *
b1 6
#395000
05
b10 -
b10 ?
0.
b10 @
b100 ;
b1 1
b1 9
b1 >
1:
1&
#400000
0&
#405000
1&
#410000
0'
0&
#415000
0:
1&
#420000
0&
#425000
1&
#430000
15
1'
0&
#435000
05
b101 ;
1,
1:
1&
#440000
0&
#445000
b10 !
b10 4
0,
1&
#450000
0'
0&
#455000
0:
1&
#460000
0&
#465000
1&
#470000
0&
#475000
1&
#480000
15
1'
0&
#485000
05
b0 ;
1:
1&
#490000
0&
#495000
1&
#500000
0'
0&
#505000
0:
1&
#510000
0&
#515000
1&
#520000
15
1'
0&
b100 C
b1 B
#525000
05
1+
b0 -
b0 ?
b0 @
b1 ;
10
b0 1
b0 9
b0 >
b0 2
b0 8
b0 =
b0 3
b0 7
b0 <
1:
1&
#530000
0&
#535000
00
b0 !
b0 4
1&
#540000
0'
0&
#545000
0:
1&
#550000
0&
#555000
1&
#560000
15
1'
0&
#565000
05
0+
b1 -
b1 ?
b1 @
b10 ;
b1 3
b1 7
b1 <
1:
1&
#570000
0&
#575000
1&
#580000
0'
0&
#585000
0:
1&
#590000
0&
#595000
1&
#600000
15
1'
0&
b100 )
b100 *
b100 6
#605000
05
b101 -
b101 ?
1/
b101 @
b11 ;
b100 2
b100 8
b100 =
1:
1&
#610000
0&
#615000
1&
#620000
0'
0&
#625000
0:
1&
#630000
0&
#635000
1&
#640000
15
1'
0&
b1 )
b1 *
b1 6
#645000
05
b111101 -
b111101 ?
1/
b111101 @
b100 ;
b1 1
b1 9
b1 >
1:
1&
#650000
0&
#655000
1&
#660000
0'
0&
#665000
0:
1&
#670000
0&
#675000
1&
#680000
15
1'
0&
#685000
05
b101 ;
1,
1:
1&
#690000
0&
#695000
0,
1$
b111101 !
b111101 4
1&
#700000
0'
0&
#705000
0:
1&
#710000
0&
#715000
1&
#720000
0&
#725000
1&
#730000
15
1'
0&
#735000
05
b0 ;
1:
1&
#740000
0&
#745000
1&
#750000
0'
0&
#755000
0:
1&
#760000
0&
#765000
1&
#770000
15
1'
0&
b10 A
b111 C
b111 B
#775000
05
1+
b0 -
b0 ?
0/
b0 @
b1 ;
10
b0 1
b0 9
b0 >
b0 2
b0 8
b0 =
b0 3
b0 7
b0 <
1:
1&
#780000
0&
#785000
0$
b0 !
b0 4
00
1&
#790000
0'
0&
#795000
0:
1&
#800000
0&
#805000
1&
#810000
15
1'
0&
b111 )
b111 *
b111 6
#815000
05
0+
b111 -
b111 ?
1/
b111 @
b10 ;
b111 3
b111 7
b111 <
1:
1&
#820000
0&
#825000
1&
#830000
0'
0&
#835000
0:
1&
#840000
0&
#845000
1&
#850000
15
1'
0&
#855000
05
b1110 -
b1110 ?
1.
1/
b1110 @
b11 ;
b111 2
b111 8
b111 =
1:
1&
#860000
0&
#865000
1&
#870000
0'
0&
#875000
0:
1&
#880000
0&
#885000
1&
#890000
15
1'
0&
b10 )
b10 *
b10 6
#895000
05
b110001 -
b110001 ?
0/
0.
b110001 @
b100 ;
b10 1
b10 9
b10 >
1:
1&
#900000
0&
#905000
1&
#910000
0'
0&
#915000
0:
1&
#920000
0&
#925000
1&
#930000
15
1'
0&
#935000
05
b101 ;
1,
1:
1&
#940000
0&
#945000
b110001 !
b110001 4
0,
1&
#950000
0'
0&
#955000
0:
1&
#960000
0&
#965000
1&
#970000
0&
#975000
1&
#980000
15
1'
0&
#985000
05
b0 ;
1:
1&
#990000
0&
#995000
1&
#1000000
0'
0&
#1005000
0:
1&
#1010000
0&
#1015000
1&
#1020000
15
1'
0&
b11 A
b10 C
b110 B
#1025000
05
1+
b0 -
b0 ?
b0 @
b1 ;
10
b0 1
b0 9
b0 >
b0 2
b0 8
b0 =
b0 3
b0 7
b0 <
1:
1&
#1030000
0&
#1035000
00
b0 !
b0 4
1&
#1040000
0'
0&
#1045000
0:
1&
#1050000
0&
#1055000
1&
#1060000
15
1'
0&
b110 )
b110 *
b110 6
#1065000
05
0+
b110 -
b110 ?
1/
b110 @
b10 ;
b110 3
b110 7
b110 <
1:
1&
#1070000
0&
#1075000
1&
#1080000
0'
0&
#1085000
0:
1&
#1090000
0&
#1095000
1&
#1100000
15
1'
0&
b10 )
b10 *
b10 6
#1105000
05
b1000 -
b1000 ?
1.
0/
b1000 @
b11 ;
b10 2
b10 8
b10 =
1:
1&
#1110000
0&
#1115000
1&
#1120000
0'
0&
#1125000
0:
1&
#1130000
0&
#1135000
1&
#1140000
15
1'
0&
b11 )
b11 *
b11 6
#1145000
05
b11 -
b11 ?
0.
b11 @
b100 ;
b11 1
b11 9
b11 >
1:
1&
#1150000
0&
#1155000
1&
#1160000
0'
0&
#1165000
0:
1&
#1170000
0&
#1175000
1&
#1180000
15
1'
0&
#1185000
05
b101 ;
1,
1:
1&
#1190000
0&
#1195000
0,
b11 !
b11 4
1&
#1200000
0'
0&
#1205000
0:
1&
#1210000
0&
#1215000
1&
#1220000
0&
#1225000
1&
#1230000
15
1'
0&
#1235000
05
b0 ;
1:
1&
#1240000
0&
#1245000
1&
#1250000
0'
0&
#1255000
0:
1&
#1260000
0&
#1265000
1&
#1270000
15
1'
0&
b0 C
b101 B
#1275000
05
1+
b0 -
b0 ?
b0 @
b1 ;
10
b0 1
b0 9
b0 >
b0 2
b0 8
b0 =
b0 3
b0 7
b0 <
1:
1&
#1280000
0&
#1285000
b0 !
b0 4
00
1&
#1290000
0'
0&
#1295000
0:
1&
#1300000
0&
#1305000
1&
#1310000
15
1'
0&
b101 )
b101 *
b101 6
#1315000
05
0+
b101 -
b101 ?
1/
b101 @
b10 ;
b101 3
b101 7
b101 <
1:
1&
#1320000
0&
#1325000
1&
#1330000
0'
0&
#1335000
0:
1&
#1340000
0&
#1345000
1&
#1350000
15
1'
0&
b0 )
b0 *
b0 6
#1355000
05
b11 ;
1:
1&
#1360000
0&
#1365000
1&
#1370000
0'
0&
#1375000
0:
1&
#1380000
0&
#1385000
1&
#1390000
15
1'
0&
b11 )
b11 *
b11 6
#1395000
05
1+
b0 -
b0 ?
1.
0/
b0 @
b100 ;
b11 1
b11 9
b11 >
1:
1&
#1400000
0&
#1405000
1&
#1410000
0'
0&
#1415000
0:
1&
#1420000
0&
#1425000
1&
#1430000
15
1'
0&
#1435000
05
b101 ;
1,
1:
1&
#1440000
0&
#1445000
1#
1"
0,
1&
#1450000
0'
0&
#1455000
0:
1&
#1460000
0&
#1465000
1&
#1470000
0&
#1475000
1&
#1480000
15
1'
0&
#1485000
05
b0 ;
1:
1&
#1490000
0&
#1495000
1&
#1500000
0'
0&
#1505000
0:
1&
#1510000
0&
#1515000
1&
#1520000
15
1'
0&
b100 A
b11 C
b110 B
#1525000
05
0.
b1 ;
10
b0 1
b0 9
b0 >
b0 3
b0 7
b0 <
1:
1&
#1530000
0&
#1535000
00
0"
0#
1&
#1540000
0'
0&
#1545000
0:
1&
#1550000
0&
#1555000
1&
#1560000
15
1'
0&
b110 )
b110 *
b110 6
#1565000
05
0+
b110 -
b110 ?
1/
b110 @
b10 ;
b110 3
b110 7
b110 <
1:
1&
#1570000
0&
#1575000
1&
#1580000
0'
0&
#1585000
0:
1&
#1590000
0&
#1595000
1&
#1600000
15
1'
0&
b11 )
b11 *
b11 6
#1605000
05
b1001 -
b1001 ?
1.
0/
b1001 @
b11 ;
b11 2
b11 8
b11 =
1:
1&
#1610000
0&
#1615000
1&
#1620000
0'
0&
#1625000
0:
1&
#1630000
0&
#1635000
1&
#1640000
15
1'
0&
b100 )
b100 *
b100 6
#1645000
05
b10 -
b10 ?
0.
b10 @
b100 ;
b100 1
b100 9
b100 >
1:
1&
#1650000
0&
#1655000
1&
#1660000
0'
0&
#1665000
0:
1&
#1670000
0&
#1675000
1&
#1680000
15
1'
0&
#1685000
05
b101 ;
1,
1:
1&
#1690000
0&
#1695000
0,
b10 !
b10 4
1&
#1700000
0'
0&
#1705000
0:
1&
#1710000
0&
#1715000
1&
#1720000
0&
#1725000
1&
#1730000
15
1'
0&
#1735000
05
b0 ;
1:
1&
#1740000
0&
#1745000
1&
#1750000
0'
0&
#1755000
0:
1&
#1760000
0&
#1765000
1&
#1770000
15
1'
0&
b101 A
b10 C
b100 B
#1775000
05
1+
b0 -
b0 ?
b0 @
b1 ;
10
b0 1
b0 9
b0 >
b0 2
b0 8
b0 =
b0 3
b0 7
b0 <
1:
1&
#1780000
0&
#1785000
b0 !
b0 4
00
1&
#1790000
0'
0&
#1795000
0:
1&
#1800000
0&
#1805000
1&
#1810000
15
1'
0&
#1815000
05
0+
b100 -
b100 ?
1/
b100 @
b10 ;
b100 3
b100 7
b100 <
1:
1&
#1820000
0&
#1825000
1&
#1830000
0'
0&
#1835000
0:
1&
#1840000
0&
#1845000
1&
#1850000
15
1'
0&
b10 )
b10 *
b10 6
#1855000
05
b110 -
b110 ?
1/
b110 @
b11 ;
b10 2
b10 8
b10 =
1:
1&
#1860000
0&
#1865000
1&
#1870000
0'
0&
#1875000
0:
1&
#1880000
0&
#1885000
1&
#1890000
15
1'
0&
b101 )
b101 *
b101 6
#1895000
05
0/
b110 @
b100 ;
b101 1
b101 9
b101 >
1:
1&
#1900000
0&
#1905000
1&
#1910000
0'
0&
#1915000
0:
1&
#1920000
0&
#1925000
1&
#1930000
15
1'
0&
#1935000
05
b101 ;
1,
1:
1&
#1940000
0&
#1945000
b110 !
b110 4
0,
1&
#1950000
0'
0&
#1955000
0:
1&
#1960000
0&
#1965000
1&
#1970000
0&
#1975000
1&
#1980000
15
1'
0&
#1985000
05
b0 ;
1:
1&
#1990000
0&
#1995000
1&
#2000000
0'
0&
#2005000
0:
1&
#2010000
0&
#2015000
1&
#2020000
15
1'
0&
b110 A
b11 C
b111 B
#2025000
05
1+
b0 -
b0 ?
b0 @
b1 ;
10
b0 1
b0 9
b0 >
b0 2
b0 8
b0 =
b0 3
b0 7
b0 <
1:
1&
#2030000
0&
#2035000
00
b0 !
b0 4
1&
#2040000
0'
0&
#2045000
0:
1&
#2050000
0&
#2055000
1&
#2060000
15
1'
0&
b111 )
b111 *
b111 6
#2065000
05
0+
b111 -
b111 ?
1/
b111 @
b10 ;
b111 3
b111 7
b111 <
1:
1&
#2070000
0&
#2075000
1&
#2080000
0'
0&
#2085000
0:
1&
#2090000
0&
#2095000
1&
#2100000
15
1'
0&
b11 )
b11 *
b11 6
#2105000
05
b1010 -
b1010 ?
1.
0/
b1010 @
b11 ;
b11 2
b11 8
b11 =
1:
1&
#2110000
0&
#2115000
1&
#2120000
0'
0&
#2125000
0:
1&
#2130000
0&
#2135000
1&
#2140000
15
1'
0&
b110 )
b110 *
b110 6
#2145000
05
b100 -
b100 ?
0.
b100 @
b100 ;
b110 1
b110 9
b110 >
1:
1&
#2150000
0&
#2155000
1&
#2160000
0'
0&
#2165000
0:
1&
#2170000
0&
#2175000
1&
#2180000
15
1'
0&
#2185000
05
b101 ;
1,
1:
1&
#2190000
0&
#2195000
0,
b100 !
b100 4
1&
#2200000
0'
0&
#2205000
0:
1&
#2210000
0&
#2215000
1&
#2220000
0&
#2225000
1&
#2230000
15
1'
0&
#2235000
05
b0 ;
1:
1&
#2240000
0&
#2245000
1&
#2250000
0'
0&
#2255000
0:
1&
#2260000
0&
#2265000
1&
#2270000
15
1'
0&
b111 A
b111 C
#2275000
05
1+
b0 -
b0 ?
b0 @
b1 ;
10
b0 1
b0 9
b0 >
b0 2
b0 8
b0 =
b0 3
b0 7
b0 <
1:
1&
#2280000
0&
#2285000
b0 !
b0 4
00
1&
#2290000
0'
0&
#2295000
0:
1&
#2300000
0&
#2305000
1&
#2310000
15
1'
0&
b111 )
b111 *
b111 6
#2315000
05
0+
b111 -
b111 ?
1/
b111 @
b10 ;
b111 3
b111 7
b111 <
1:
1&
#2320000
0&
#2325000
1&
#2330000
0'
0&
#2335000
0:
1&
#2340000
0&
#2345000
1&
#2350000
15
1'
0&
#2355000
05
b1110 -
b1110 ?
1.
1/
b1110 @
b11 ;
b111 2
b111 8
b111 =
1:
1&
#2360000
0&
#2365000
1&
#2370000
0'
0&
#2375000
0:
1&
#2380000
0&
#2385000
1&
#2390000
15
1'
0&
#2395000
05
1+
b0 -
b0 ?
0/
0.
b0 @
b100 ;
b111 1
b111 9
b111 >
1:
1&
#2400000
0&
#2405000
1&
#2410000
0'
0&
#2415000
0:
1&
#2420000
0&
#2425000
1&
#2430000
15
1'
0&
#2435000
05
b101 ;
1,
1:
1&
#2440000
0&
#2445000
1"
0,
1&
#2450000
0'
0&
#2455000
0:
1&
#2460000
0&
#2465000
1&
#2470000
0&
#2475000
1&
#2480000
15
1'
0&
#2485000
05
b0 ;
1:
1&
#2490000
0&
#2495000
1&
#2500000
0'
0&
#2505000
0:
1&
